%YAML 1.1
%TAG !u! tag:unity3d.com,2011:
--- !u!114 &11400000
MonoBehaviour:
  m_ObjectHideFlags: 0
  m_CorrespondingSourceObject: {fileID: 0}
  m_PrefabInstance: {fileID: 0}
  m_PrefabAsset: {fileID: 0}
  m_GameObject: {fileID: 0}
  m_Enabled: 1
  m_EditorHideFlags: 0
  m_Script: {fileID: 11500000, guid: 15f1b44637122214585261463e1ffa36, type: 3}
  m_Name: Poison
  m_EditorClassIdentifier: 
  itemLabel: 
  price: 0
  icon: {fileID: 0}
  type: 0
  value: 0
