%YAML 1.1
%TAG !u! tag:unity3d.com,2011:
--- !u!114 &11400000
MonoBehaviour:
  m_ObjectHideFlags: 0
  m_CorrespondingSourceObject: {fileID: 0}
  m_PrefabInstance: {fileID: 0}
  m_PrefabAsset: {fileID: 0}
  m_GameObject: {fileID: 0}
  m_Enabled: 1
  m_EditorHideFlags: 0
  m_Script: {fileID: 11500000, guid: 03e1222e7f158a246965fc565417bd0f, type: 3}
  m_Name: StateCountDown
  m_EditorClassIdentifier: 
  stateColor: {r: 0.40592784, g: 0.15294115, b: 0.6431373, a: 1}
  action: {fileID: 11400000, guid: a66185ce1108f604fb0f8336230a5a34, type: 2}
  transitions:
  - condition: {fileID: 11400000, guid: 61688d6544add9446bca09a734c89bee, type: 2}
    nextState: {fileID: 11400000}
